// Jest Snapshot v1, https://goo.gl/fbAQLP

exports[`Discovers issuer 1`] = `
Object {
  "authorization_endpoint": "https://example.domain/oauth/authorize",
  "issuer": "https://example.domain",
  "token_endpoint": "https://example.domain/oauth/token",
}
`;

exports[`Discovers issuer from domain only 1`] = `
Object {
  "authorization_endpoint": "https://example.domain/oauth/authorize",
  "issuer": "https://example.domain",
  "token_endpoint": "https://example.domain/oauth/token",
}
`;

exports[`Exchange token 1`] = `
Object {
  "token": "my-token",
}
`;

exports[`Exchange token 2`] = `
Array [
  Array [
    "http://example.domain/oauth/token",
    Object {
      "headers": Object {
        "Content-Type": "application/json",
      },
      "method": "POST",
    },
  ],
]
`;

exports[`Exchange token 3`] = `
Array [
  Array [
    "{\\"client_id\\":\\"client-id\\",\\"client_secret\\":\\"client-secret\\",\\"redirect_uri\\":\\"redirect-uri\\",\\"code\\":\\"my-code\\",\\"grant_type\\":\\"authorization_code\\"}",
  ],
]
`;

exports[`Exchange token error 1`] = `[Error: A bad event occured]`;

exports[`Get user info 1`] = `
Object {
  "name": "Dr. User",
  "nickname": "Dr. User",
  "picture": "http://example.com/img.jpg",
  "preferred_username": "User",
  "profile": "https://example.host/@user",
  "sub": "https://example.host/@user",
}
`;

exports[`Gets auth URL 1`] = `"https://example.domain/oauth/authorization?scope=read&client_id=12345&redirect_uri=http%3A%2F%2Flocalhost%2Fexchange-token&response_type=code"`;

exports[`Parses HTTP response 1`] = `
Object {
  "code": "my-code",
  "issuer": "example.host",
}
`;

exports[`Registers client 1`] = `
Object {
  "client_secret": "client_secret",
}
`;

exports[`Registers client 2`] = `
Array [
  Array [
    "client_name=Test+Client&redirect_uris=http%3A%2F%2Flocal.example%2Fexchange-token%3Fissuer%3Dexample.domain",
  ],
]
`;

exports[`Registers with OOB auth URL 1`] = `
Object {
  "client_secret": "client_secret",
}
`;

exports[`Registers with OOB auth URL 2`] = `
Array [
  Array [
    "client_name=Test+Client&redirect_uris=urn%3Aietf%3Awg%3Aoauth%3A2.0%3Aoob",
  ],
]
`;
